Synthetic Control Analysis: COVID-19 Vaccine Lotteries
…
Ratio of the pre- and post-intervention MSPE, actual and placebo synthetic control analysis

An exact p-value can be computed from this distribution, by observing how many control units have as or more extreme ratios. This is done in the fit function and can be accessed using grab_significance.

## Get all pre- and post-intervention MSPEs, ratios, and ranks:
synth_ohio %>% grab_significance()

# A tibble: 33 × 8
   unit_name type  pre_mspe post_mspe mspe_ratio  rank fishers_exact_pvalue
   <chr>     <chr>    <dbl>     <dbl>      <dbl> <int>                <dbl>
 1 NH        Donor   0.331     111.        336.      1               0.0303
 2 NE        Donor   0.0645     16.4       254.      2               0.0606
 3 KS        Donor   0.139      19.2       138.      3               0.0909
 4 ND        Donor   0.309      42.5       138.      4               0.121 
 5 VT        Donor   0.301      34.5       115.      5               0.152 
 6 VA        Donor   0.0463      3.98       85.9     6               0.182 
 7 WI        Donor   0.0560      3.80       67.8     7               0.212 
 8 MO        Donor   0.0329      2.09       63.5     8               0.242 
 9 IN        Donor   0.168       9.83       58.3     9               0.273 
10 FL        Donor   0.0689      3.58       51.9    10               0.303 
# ℹ 23 more rows
# ℹ 1 more variable: z_score <dbl>
…
# A tibble: 1 × 8
  unit_name type    pre_mspe post_mspe mspe_ratio  rank fishers_exact_pvalue
  <chr>     <chr>      <dbl>     <dbl>      <dbl> <int>                <dbl>
1 OH        Treated   0.0488      1.32       27.0    12                0.364
# ℹ 1 more variable: z_score <dbl>

A similar exact p-value can be computed using any other estimator. We can get this by pulling the results at each time point using grab_synthetic_control(). We then compare the actual estimate to the placebo estimates.

## Pull the synthetic control results for each time point:
SC_res <- synth_ohio %>% grab_synthetic_control(placebo=TRUE) %>%
  mutate(diff=real_y-synth_y)
SC_res

# A tibble: 792 × 6
   .id   .placebo time_unit real_y synth_y    diff
   <chr>    <dbl>     <dbl>  <dbl>   <dbl>   <dbl>
 1 OH           0       -17   0.12   0.362 -0.242 
 2 OH           0       -16   0.61   0.775 -0.165 
 3 OH           0       -15   1.4    1.43  -0.0346
 4 OH           0       -14   2.44   2.41   0.0294
 5 OH           0       -13   3.83   3.76   0.0732
 6 OH           0       -12   5.56   5.71  -0.149 
 7 OH           0       -11   7.67   7.69  -0.0216
 8 OH           0       -10   9.44   9.50  -0.0578
 9 OH           0        -9  11.9   11.8    0.0746
10 OH           0        -8  13.9   13.8    0.0233
# ℹ 782 more rows

## For each time period, compute a permutation p-value
time_an <- function(time) {
  SC_res_time <- SC_res %>% dplyr::filter(time_unit==time)
  Est <- SC_res_time %>% dplyr::filter(.placebo==0) %>% pull(diff)
  P.Val <- mean(abs(SC_res_time %>% pull(diff)) >= abs(Est))
  return(c(time_unit=time,estimate=Est,p.value=P.Val))
}
by_time_res <- as_tibble(t(sapply(X=unique(SC_res %>% pull(time_unit)),
                                  FUN=time_an)))
by_time_res

# A tibble: 24 × 3
   time_unit estimate p.value
       <dbl>    <dbl>   <dbl>
 1       -17  -0.242    0.121
 2       -16  -0.165    0.576
 3       -15  -0.0346   0.939
 4       -14   0.0294   0.970
 5       -13   0.0732   0.970
 6       -12  -0.149    0.667
 7       -11  -0.0216   0.939
 8       -10  -0.0578   0.848
 9        -9   0.0746   0.848
10        -8   0.0233   1    
# ℹ 14 more rows
…
Time series of the difference, Observed – Synthetic New Mexico, in percent fully vaccinated rate by week, starting from the week ending 1/17/21.

## Create a data set with the weights and sort largest to smallest in absolute value.
NM_as_w <- tibble(State=rownames(NM_as$weights),
                  Weight=NM_as$weights[,1]) %>%
  arrange(desc(abs(Weight)))
## Print results:
NM_as_w

# A tibble: 32 × 2
   State   Weight
   <chr>    <dbl>
 1 CT     5.49e-1
 2 AK     4.48e-1
 3 SD     2.86e-3
 4 KS    -1.24e-8
 5 FL    -6.50e-9
 6 DC    -5.81e-9
 7 TX    -4.84e-9
 8 UT    -4.73e-9
 9 AZ    -4.56e-9
10 GA    -4.53e-9
# ℹ 22 more rows
…
Time series of the difference, Observed – De-meaned Synthetic New Mexico, in percent fully vaccinated rate by week, starting from the week ending 1/17/21.

We can print the weights that come from the de-meaned SC fit. Notice there are meaningful differences from the standard SC fit weights.

## Create a data set with the weights and sort largest to smallest in absolute value.
NM_as_fe_w <- tibble(State=rownames(NM_as_fe$weights),
                  Weight=NM_as_fe$weights[,1]) %>%
  arrange(desc(abs(Weight)))
## Print results:
NM_as_fe_w

# A tibble: 32 × 2
   State   Weight
   <chr>    <dbl>
 1 CT     3.83e-1
 2 SD     3.51e-1
 3 AK     2.33e-1
 4 RI     3.27e-2
 5 KS    -6.58e-9
 6 FL    -5.88e-9
 7 TX    -4.94e-9
 8 UT    -4.52e-9
 9 GA    -4.02e-9
10 MO    -3.95e-9
# ℹ 22 more rows
…
Time series of the difference, Observed – Ridge-adjusted Synthetic New Mexico, in percent fully vaccinated rate by week, starting from the week ending 1/17/21.

We can print the weights that come from the ridge-augmented SC fit. Notice there are meaningful differences from the previous weights and now there are states that get non-negligible negative weights.

## Create a data set with the weights and sort largest to smallest in absolute value.
NM_as_r_w <- tibble(State=rownames(NM_as_r$weights),
                  Weight=NM_as_r$weights[,1]) %>%
  arrange(desc(abs(Weight)))
## Print results:
NM_as_r_w

# A tibble: 32 × 2
   State Weight
   <chr>  <dbl>
 1 UT    -0.328
 2 RI     0.318
 3 HI     0.305
 4 SD     0.296
 5 IN     0.285
 6 KS    -0.266
 7 AK     0.235
 8 PA    -0.226
 9 CT     0.151
10 FL     0.150
# ℹ 22 more rows
…
